<svg width="512" height="509" viewBox="0 0 512 509" fill="none" xmlns="http://www.w3.org/2000/svg">
<path d="M70.0194 289.016C87.958 289.016 105.9 282.195 119.558 268.552L268.587 119.519C295.865 92.2059 295.865 47.7655 268.587 20.4526C268.586 20.4516 268.584 20.4496 268.583 20.4486C255.396 7.26223 237.804 0 219.046 0C200.288 0 182.696 7.26223 169.51 20.4486L20.4849 169.477C-6.82896 196.792 -6.82896 241.237 20.4889 268.556C34.1453 282.197 52.0809 289.016 70.0194 289.016ZM183.652 34.5911C193.06 25.1828 205.631 20.0016 219.046 20.0016C232.461 20.0016 245.029 25.1818 254.435 34.5871C273.931 54.1067 273.931 85.8667 254.439 105.382L186.998 172.825L116.21 102.035L183.652 34.5911ZM34.6273 183.62L102.068 116.177L172.857 186.967L105.42 254.406C85.8999 273.902 54.1409 273.901 34.6273 254.41C15.1117 234.893 15.1107 203.136 34.6273 183.62Z" fill="black"/>
<path d="M480.801 375.638L318.822 240.812C304.496 228.885 286.316 223.258 267.64 224.963C248.951 226.67 232.095 235.505 220.18 249.834C208.243 264.156 202.609 282.333 204.317 301.015C206.025 319.704 214.864 336.564 229.203 348.486L391.184 483.341C403.824 493.862 419.464 499.48 435.806 499.48C437.983 499.48 440.173 499.38 442.369 499.179C461.052 497.469 477.907 488.637 489.83 474.313C489.831 474.312 489.832 474.31 489.833 474.309C514.527 444.609 510.477 400.346 480.801 375.638ZM241.995 333.111C231.764 324.604 225.455 312.559 224.234 299.195C223.013 285.837 227.029 272.855 235.552 262.63C244.054 252.404 256.095 246.101 269.458 244.881C271.028 244.738 272.592 244.667 274.148 244.667C285.831 244.667 297.006 248.676 306.025 256.184L379.329 317.2L315.295 394.138L241.995 333.111ZM474.453 461.522C465.948 471.739 453.907 478.039 440.545 479.262C427.184 480.483 414.196 476.475 403.98 467.971L330.667 406.935L394.703 329.995L468.005 391.009C489.21 408.665 492.103 440.296 474.453 461.522Z" fill="black"/>
<path d="M100.775 307.916C73.9256 307.916 48.6839 318.372 29.6983 337.358C-9.48796 376.545 -9.48796 440.307 29.6983 479.494C48.6839 498.481 73.9266 508.937 100.775 508.937C127.626 508.937 152.862 498.48 171.832 479.494C211.018 440.307 211.018 376.545 171.834 337.361C152.862 318.373 127.626 307.916 100.775 307.916ZM100.775 488.937C79.2688 488.937 59.0492 480.562 43.8407 465.354C20.603 442.116 14.5878 408.095 25.7571 379.253L129.993 483.467C120.802 487.044 110.938 488.937 100.775 488.937ZM157.685 465.355C154.725 468.317 151.57 471.012 148.257 473.444L35.7435 360.954C38.1605 357.648 40.8566 354.485 43.8407 351.501C46.8078 348.534 49.9709 345.836 53.291 343.401L165.796 455.883C163.376 459.195 160.675 462.366 157.685 465.355ZM175.779 437.581L71.5606 333.383C80.7529 329.807 90.6162 327.916 100.775 327.916C122.28 327.916 142.492 336.292 157.689 351.5C180.92 374.733 186.937 408.743 175.779 437.581Z" fill="black"/>
<path d="M411.553 246.344C438.403 246.344 463.638 235.887 482.61 216.902C521.796 177.715 521.796 113.953 482.613 74.7684C463.64 55.7808 438.404 45.3235 411.553 45.3235C384.703 45.3235 359.462 55.7798 340.476 74.7654C301.29 113.953 301.29 177.715 340.476 216.902C359.461 235.887 384.703 246.344 411.553 246.344ZM486.558 116.679C497.716 145.516 491.699 179.526 468.467 202.758C468.466 202.759 468.465 202.76 468.464 202.76C453.271 217.967 433.059 226.342 411.553 226.342C401.394 226.342 391.531 224.451 382.339 220.876L486.558 116.679ZM354.619 88.9068C369.827 73.6984 390.046 65.3231 411.553 65.3231C421.714 65.3231 431.577 67.2142 440.767 70.7913L420.393 91.1479C416.485 95.051 416.482 101.383 420.387 105.29C422.34 107.245 424.901 108.222 427.461 108.222C430.019 108.222 432.576 107.247 434.529 105.296L459.034 80.8146C462.349 83.2477 465.506 85.9438 468.467 88.9078C471.456 91.8969 474.156 95.066 476.575 98.3781L364.07 210.86C360.749 208.425 357.586 205.727 354.619 202.759C351.635 199.776 348.939 196.613 346.523 193.308L371.029 168.825C374.936 164.922 374.939 158.59 371.035 154.683C367.131 150.776 360.8 150.773 356.893 154.677L336.538 175.014C325.366 146.171 331.38 112.147 354.619 88.9068Z" fill="black"/>
<path d="M391.223 138.945C392.652 139.659 394.17 139.997 395.668 139.997C399.348 139.997 402.898 137.955 404.654 134.444C407.124 129.504 405.122 123.497 400.182 121.027C395.242 118.557 389.235 120.559 386.765 125.499L386.737 125.556C384.267 130.496 386.283 136.475 391.223 138.945Z" fill="black"/>
</svg>
