<svg width="512" height="512" viewBox="0 0 512 512" fill="none" xmlns="http://www.w3.org/2000/svg">
<path d="M245.333 181.333V216.613C239.075 220.337 234.666 226.875 234.666 234.666C234.666 246.426 244.239 255.999 255.999 255.999C267.759 255.999 277.332 246.426 277.332 234.666C277.332 226.874 272.923 220.337 266.665 216.613V181.333C266.665 175.437 261.894 170.666 255.998 170.666C250.102 170.666 245.333 175.438 245.333 181.333Z" fill="black"/>
<path d="M437.333 0C395.468 0 362.666 37.479 362.666 85.333C362.666 119.674 388.568 180.509 426.666 190.454V394.666C426.666 447.604 383.603 490.666 330.666 490.666C279.723 490.666 238.331 450.671 235.255 400.49C268.702 396.235 298.666 388.275 298.666 373.332V332.29C336.27 315.783 362.666 278.293 362.666 234.665C362.666 191.037 336.27 153.546 298.666 137.04V74.667C298.666 44.209 174.27 42.667 149.333 42.667C124.396 42.667 0 44.208 0 74.667V373.334C0 403.792 124.396 405.334 149.333 405.334C159.435 405.334 185.879 405.045 213.741 402.719C217.91 463.66 268.686 512 330.667 512C395.365 512 448 459.365 448 394.667V190.454C486.098 180.509 512 119.674 512 85.333C512 37.479 479.198 0 437.333 0ZM341.333 234.667C341.333 281.719 303.052 320 256 320C208.948 320 170.667 281.719 170.667 234.667C170.667 187.615 208.948 149.334 256 149.334C303.052 149.334 341.333 187.615 341.333 234.667ZM149.333 64C200 64 244.24 69.375 265.885 74.667C244.24 79.958 200 85.333 149.333 85.333C98.666 85.333 54.427 79.958 32.781 74.666C54.427 69.375 98.667 64 149.333 64ZM64 378.763C42.715 375.987 27.245 372.566 21.333 369.625V92.988C32.91 97.033 48.035 99.897 64 101.905V378.763ZM149.333 384C126.119 384 104.294 382.862 85.333 381.13V104.086C113.044 106.38 139.281 106.667 149.333 106.667C167.797 106.667 240.682 105.789 277.333 92.989V130.157C270.438 128.75 263.305 128 256 128C197.187 128 149.333 175.854 149.333 234.667C149.333 293.48 197.188 341.333 256 341.333C263.305 341.333 270.438 340.583 277.333 339.177V369.625C265.042 375.74 212.125 384 149.333 384ZM437.333 170.667C410.354 170.667 384 116.677 384 85.334C384 49.449 407.427 21.334 437.333 21.334C467.239 21.334 490.666 49.449 490.666 85.334C490.667 116.677 464.313 170.667 437.333 170.667Z" fill="black"/>
</svg>
