<svg width="480" height="480" viewBox="0 0 480 480" fill="none" xmlns="http://www.w3.org/2000/svg">
<path d="M16 104C16.0071 97.637 18.538 91.5367 23.0373 87.0373C27.5367 82.538 33.637 80.0071 40 80H64V96H40C37.8783 96 35.8434 96.8429 34.3431 98.3431C32.8429 99.8434 32 101.878 32 104V440C32 442.122 32.8429 444.157 34.3431 445.657C35.8434 447.157 37.8783 448 40 448H264C266.122 448 268.157 447.157 269.657 445.657C271.157 444.157 272 442.122 272 440V420H256V432H48V363.314L98.343 413.657C99.0859 414.4 99.9678 414.989 100.938 415.391C101.909 415.793 102.949 416 104 416H256V400H112V344C112 341.878 111.157 339.843 109.657 338.343C108.157 336.843 106.122 336 104 336H48V112H64C64 114.122 64.8429 116.157 66.3431 117.657C67.8434 119.157 69.8783 120 72 120H232C234.122 120 236.157 119.157 237.657 117.657C239.157 116.157 240 114.122 240 112H256V144H272V104C272 101.878 271.157 99.8434 269.657 98.3431C268.157 96.8429 266.122 96 264 96H240V80H264C270.363 80.0071 276.463 82.538 280.963 87.0373C285.462 91.5367 287.993 97.637 288 104V152H304V104C303.988 93.395 299.77 83.2278 292.271 75.7289C284.772 68.23 274.605 64.0119 264 64H227.314L213.657 50.343C212.914 49.6001 212.032 49.0109 211.062 48.6089C210.091 48.2069 209.051 48 208 48H184C184 39.5131 180.629 31.3737 174.627 25.3726C168.626 19.3714 160.487 16 152 16C143.513 16 135.374 19.3714 129.373 25.3726C123.371 31.3737 120 39.5131 120 48H96C94.9494 48 93.9091 48.2069 92.9385 48.6089C91.9678 49.0109 91.0859 49.6001 90.343 50.343L76.686 64H40C29.395 64.0119 19.2278 68.23 11.7289 75.7289C4.23001 83.2278 0.0119105 93.395 0 104V136H16V104ZM96 388.686L59.314 352H96V388.686ZM99.314 64H128C130.122 64 132.157 63.1571 133.657 61.6569C135.157 60.1566 136 58.1217 136 56V48C136 43.7565 137.686 39.6869 140.686 36.6863C143.687 33.6857 147.757 32 152 32C156.243 32 160.313 33.6857 163.314 36.6863C166.314 39.6869 168 43.7565 168 48V56C168 58.1217 168.843 60.1566 170.343 61.6569C171.843 63.1571 173.878 64 176 64H204.686L224 83.313V104H80V83.313L99.314 64Z" fill="black"/>
<path d="M288 440C287.993 446.363 285.462 452.463 280.963 456.963C276.463 461.462 270.363 463.993 264 464H40C33.637 463.993 27.5367 461.462 23.0373 456.963C18.538 452.463 16.0071 446.363 16 440V152H0V440C0.0119105 450.605 4.23001 460.772 11.7289 468.271C19.2278 475.77 29.395 479.988 40 480H264C274.605 479.988 284.772 475.77 292.271 468.271C299.77 460.772 303.988 450.605 304 440V424H288V440Z" fill="black"/>
<path d="M96 184V168H112V152H96V136H80V152H64V168H80V184H96Z" fill="black"/>
<path d="M128 136H240V152H128V136Z" fill="black"/>
<path d="M128 168H200V184H128V168Z" fill="black"/>
<path d="M96 200H192V216H96V200Z" fill="black"/>
<path d="M64 200H80V216H64V200Z" fill="black"/>
<path d="M96 232H192V248H96V232Z" fill="black"/>
<path d="M96 264H216V280H96V264Z" fill="black"/>
<path d="M64 264H80V280H64V264Z" fill="black"/>
<path d="M96 296H240V312H96V296Z" fill="black"/>
<path d="M128 328H240V344H128V328Z" fill="black"/>
<path d="M128 360H240V376H128V360Z" fill="black"/>
<path d="M456 8C456 5.87827 455.157 3.84344 453.657 2.34315C452.157 0.842854 450.122 0 448 0H432C427.757 0 423.687 1.68571 420.686 4.68629C417.686 7.68687 416 11.7565 416 16C416 20.2435 417.686 24.3131 420.686 27.3137C423.687 30.3143 427.757 32 432 32H448C450.122 32 452.157 31.1571 453.657 29.6569C455.157 28.1566 456 26.1217 456 24C458.121 24.0024 460.154 24.846 461.654 26.3458C463.154 27.8456 463.998 29.879 464 32V152C464 168.974 457.257 185.253 445.255 197.255C433.252 209.257 416.974 216 400 216C383.026 216 366.747 209.257 354.745 197.255C342.743 185.253 336 168.974 336 152V32C336.002 29.879 336.846 27.8456 338.346 26.3458C339.846 24.846 341.879 24.0024 344 24C344 26.1217 344.843 28.1566 346.343 29.6569C347.843 31.1571 349.878 32 352 32H368C372.243 32 376.313 30.3143 379.314 27.3137C382.314 24.3131 384 20.2435 384 16C384 11.7565 382.314 7.68687 379.314 4.68629C376.313 1.68571 372.243 0 368 0H352C349.878 0 347.843 0.842854 346.343 2.34315C344.843 3.84344 344 5.87827 344 8C337.637 8.00741 331.537 10.5384 327.038 15.0376C322.538 19.5369 320.007 25.6371 320 32V152C320.024 171.825 327.399 190.938 340.698 205.641C353.998 220.344 372.276 229.593 392 231.6V348C392.006 358.34 389.338 368.507 384.255 377.512C379.172 386.516 371.847 394.054 362.991 399.392C354.135 404.73 344.049 407.687 333.713 407.977C323.376 408.266 313.141 405.877 304 401.043V280H288V388.735C277.708 377.668 271.991 363.113 272 348V271.419C286.013 269.396 298.739 262.141 307.618 251.114C316.497 240.086 320.87 226.105 319.856 211.983C318.842 197.862 312.517 184.648 302.154 175.002C291.79 165.356 278.158 159.993 264 159.993C249.842 159.993 236.21 165.356 225.846 175.002C215.483 184.648 209.158 197.862 208.144 211.983C207.13 226.105 211.502 240.086 220.382 251.114C229.261 262.141 241.987 269.396 256 271.419V348C256 368.156 264.007 387.487 278.26 401.74C292.513 415.993 311.844 424 332 424C352.156 424 371.487 415.993 385.74 401.74C399.993 387.487 408 368.156 408 348V231.6C427.724 229.593 446.002 220.344 459.302 205.641C472.601 190.938 479.976 171.825 480 152V32C479.993 25.6371 477.462 19.5369 472.962 15.0376C468.463 10.5384 462.363 8.00741 456 8ZM256 216C256 214.418 256.469 212.871 257.348 211.555C258.227 210.24 259.477 209.214 260.939 208.609C262.4 208.003 264.009 207.845 265.561 208.154C267.113 208.462 268.538 209.224 269.657 210.343C270.776 211.462 271.538 212.887 271.846 214.439C272.155 215.991 271.996 217.6 271.391 219.061C270.785 220.523 269.76 221.773 268.445 222.652C267.129 223.531 265.582 224 264 224C261.879 223.998 259.846 223.154 258.346 221.654C256.846 220.154 256.002 218.121 256 216ZM224 216C224.002 208.432 226.15 201.019 230.196 194.623C234.242 188.228 240.02 183.111 246.858 179.867C253.696 176.624 261.314 175.387 268.827 176.3C276.34 177.214 283.44 180.24 289.301 185.027C295.163 189.814 299.547 196.166 301.943 203.345C304.339 210.524 304.649 218.235 302.837 225.584C301.025 232.932 297.166 239.615 291.708 244.858C286.249 250.1 279.415 253.686 272 255.2V238.624C277.338 236.737 281.836 233.023 284.701 228.14C287.566 223.257 288.612 217.518 287.654 211.938C286.697 206.358 283.798 201.296 279.469 197.647C275.141 193.998 269.661 191.997 264 191.997C258.338 191.997 252.859 193.998 248.531 197.647C244.202 201.296 241.303 206.358 240.346 211.938C239.388 217.518 240.434 223.257 243.299 228.14C246.164 233.023 250.662 236.737 256 238.624V255.2C246.971 253.344 238.858 248.432 233.029 241.291C227.199 234.15 224.011 225.218 224 216Z" fill="black"/>
</svg>
